{"status":true,"data":{"page":1,"pageSize":10,"pages":2,"total":13,"list":[{"username":"oopsguy","gender":"男"}]},"msg":"ok"}